{"totalPages":614,"currentPage":1,"count":7357,"homes":[{"currency":"SEK","external":false,"fee":247,"firsthand":false,"homeStatus":"normal","homeType":"apartment","id":68845,"links":{"en":"https://bostad.blocket.se/rent/apartment/fliserydsvagen-monsteras/68845","sv":"https://bostad.blocket.se/hyra/lagenhet/fliserydsvagen-monsteras/68845"},"origin":null,"rent":4938,"recommendedRent":6651,"roomCount":2,"squareMeters":63,"shared":false,"studentHome":false,"applicationCount":1,"inContactCount":1,"declinedCount":0,"matchingCount":7,"safeRental":false,"professional":false,"landlordApplicationId":null,"duration":{"start":{"asap":false,"optimal":"2020-03-01T00:00:00.000Z"},"end":{"ufn":true}},"location":{"placeId":"ChIJ4ab_zOLuV0YRZR0gC65ihT8","country":"Sverige","countryCode":"SE","locality":"Mönsterås","postalCode":"38339","sublocality":null,"route":"Fliserydsvägen","streetNumber":"4","formattedAddress":"Fliserydsvägen 4D, 383 39 Mönsterås, Sverige","shortName":null,"latitude":"57.0504772","longitude":"16.437143"},"uploads":[{"id":888906,"title":"Jenn y Blom.png","fileType":"image","uploadType":"home_picture","url":"https://qasa-static-prod.s3-eu-west-1.amazonaws.com/img/510d1ec2f97703ce873366041a0069a8f0c2fe9a3956e73ea1c11ba1f0ad3f74.png","metadata":{"order":null,"rotation":null,"primary":false}}]},{"currency":"SEK","external":false,"fee":550,"firsthand":false,"homeStatus":"normal","homeType":"apartment","id":68818,"links":{"en":"https://bostad.blocket.se/rent/apartment/norrbyvagen-stockholm/68818","sv":"https://bostad.blocket.se/hyra/lagenhet/norrbyvagen-stockholm/68818"},"origin":null,"rent":11000,"recommendedRent":10076,"roomCount":1.5,"squareMeters":34,"shared":false,"studentHome":false,"applicationCount":2,"inContactCount":0,"declinedCount":0,"matchingCount":1643,"safeRental":false,"professional":false,"landlordApplicationId":null,"duration":{"start":{"asap":true,"optimal":null},"end":{"ufn":false,"optimal":"2020-08-30T00:00:00.000Z"}},"location":{"placeId":"ChIJh7-kBfmdX0YRLAopkkKdmLs","country":"Sverige","countryCode":"SE","locality":"Stockholm","postalCode":"Bromma","sublocality":null,"route":"Norrbyvägen","streetNumber":"16","formattedAddress":"Norrbyvägen 16, 168 69 Bromma, Sverige","shortName":null,"latitude":"59.345287","longitude":"17.9614869"},"uploads":[{"id":888761,"title":"IMG_7681.JPG","fileType":"image","uploadType":"home_picture","url":"https://qasa-static-prod.s3-eu-west-1.amazonaws.com/img/e24302613e4c69e619191c2b4ef040fec13d4cdf1276b2790fcea25abb1eec48.jpg","metadata":{"order":2,"rotation":null,"primary":true}}]},{"currency":"SEK","external":false,"fee":398,"firsthand":false,"homeStatus":"normal","homeType":"apartment","id":68842,"links":{"en":"https://bostad.blocket.se/rent/apartment/skolgatan-monsteras/68842","sv":"https://bostad.blocket.se/hyra/lagenhet/skolgatan-monsteras/68842"},"origin":null,"rent":7950,"recommendedRent":8783,"roomCount":4,"squareMeters":90,"shared":false,"studentHome":false,"applicationCount":0,"inContactCount":0,"declinedCount":0,"matchingCount":31,"safeRental":false,"professional":false,"landlordApplicationId":null,"duration":{"start":{"asap":true,"optimal":"2020-01-01T00:00:00.000Z"},"end":{"ufn":true}},"location":{"placeId":"ChIJf7QlwhjvV0YRC67DPeBgM0I","country":"Sverige","countryCode":"SE","locality":"Mönsterås","postalCode":"38330","sublocality":null,"route":"Skolgatan","streetNumber":"10","formattedAddress":"Skolgatan 10, 383 30 Mönsterås, Sverige","shortName":null,"latitude":"57.039853","longitude":"16.4449374"},"uploads":[]},{"currency":"SEK","external":false,"fee":400,"firsthand":false,"homeStatus":"normal","homeType":"apartment","id":68846,"links":{"en":"https://bostad.blocket.se/rent/apartment/portlidervagen-vasteras/68846","sv":"https://bostad.blocket.se/hyra/lagenhet/portlidervagen-vasteras/68846"},"origin":null,"rent":8000,"recommendedRent":8502,"roomCount":3,"squareMeters":68,"shared":false,"studentHome":false,"applicationCount":0,"inContactCount":0,"declinedCount":0,"matchingCount":52,"safeRental":true,"professional":false,"landlordApplicationId":null,"duration":{"start":{"asap":false,"optimal":"2020-01-15T00:00:00.000Z"},"end":{"ufn":false,"optimal":"2020-02-15T00:00:00.000Z"}},"location":{"placeId":"ChIJ0SZzf1hhXkYRZsPYATE7jOk","country":"Sverige","countryCode":"SE","locality":"Västerås","postalCode":"724 80","sublocality":null,"route":"Portlidervägen","streetNumber":"2","formattedAddress":"Portlidervägen, 724 80 Västerås, Sverige","shortName":null,"latitude":"59.6197193","longitude":"16.5057662"},"uploads":[{"id":888908,"title":"House.jpg","fileType":"image","uploadType":"home_picture","url":"https://qasa-static-prod.s3-eu-west-1.amazonaws.com/img/5e10ea4f76ac3e576bb8023aad126d3eaba5d94a9f5a32304a0c6052e01986ba.jpg","metadata":{"order":null,"rotation":null,"primary":false}}]},{"currency":"SEK","external":false,"fee":680,"firsthand":false,"homeStatus":"normal","homeType":"apartment","id":68793,"links":{"en":"https://bostad.blocket.se/rent/apartment/stabbegatan-goteborg/68793","sv":"https://bostad.blocket.se/hyra/lagenhet/stabbegatan-goteborg/68793"},"origin":null,"rent":13600,"recommendedRent":10597,"roomCount":3,"squareMeters":62,"shared":false,"studentHome":false,"applicationCount":0,"inContactCount":0,"declinedCount":0,"matchingCount":179,"safeRental":false,"professional":false,"landlordApplicationId":null,"duration":{"start":{"asap":false,"optimal":"2020-02-02T00:00:00.000Z"},"end":{"ufn":false,"optimal":"2021-02-02T00:00:00.000Z"}},"location":{"placeId":"ChIJp1-OpA_0T0YRnepcZHdrDOA","country":"Sverige","countryCode":"SE","locality":"Göteborg","postalCode":"416 80","sublocality":null,"route":"Stabbegatan","streetNumber":"59","formattedAddress":"Stabbegatan, 416 80 Göteborg, Sverige","shortName":null,"latitude":"57.7161161","longitude":"12.0477401"},"uploads":[{"id":888302,"title":"20191219_204236.jpg","fileType":"image","uploadType":"home_picture","url":"https://qasa-static-prod.s3-eu-west-1.amazonaws.com/img/4f665de4335bf4af97ab4237ce7b7770bfdf2ac07109ecdf7f743aaf47a9eb05.jpg","metadata":{"order":null,"rotation":null,"primary":false}}]},{"currency":"SEK","external":false,"fee":231,"firsthand":false,"homeStatus":"normal","homeType":"apartment","id":68499,"links":{"en":"https://bostad.blocket.se/rent/apartment/skansgatan-morbylanga/68499","sv":"https://bostad.blocket.se/hyra/lagenhet/skansgatan-morbylanga/68499"},"origin":null,"rent":4628,"recommendedRent":6506,"roomCount":2,"squareMeters":60,"shared":false,"studentHome":false,"applicationCount":2,"inContactCount":0,"declinedCount":1,"matchingCount":27,"safeRental":false,"professional":false,"landlordApplicationId":null,"duration":{"start":{"asap":false,"optimal":"2020-01-01T00:00:00.000Z"},"end":{"ufn":true}},"location":{"placeId":"ChIJi3qe7Q8rVkYRSE53qBWLe8w","country":"Sverige","countryCode":"SE","locality":"Mörbylånga","postalCode":"38062","sublocality":null,"route":"Skansgatan","streetNumber":"1","formattedAddress":"Skansgatan 1, 380 62 Mörbylånga, Sverige","shortName":null,"latitude":"56.5255925","longitude":"16.3794876"},"uploads":[]},{"currency":"SEK","external":false,"fee":285,"firsthand":false,"homeStatus":"normal","homeType":"apartment","id":68837,"links":{"en":"https://bostad.blocket.se/rent/apartment/vastra-gransgatan-lonsboda/68837","sv":"https://bostad.blocket.se/hyra/lagenhet/vastra-gransgatan-lonsboda/68837"},"origin":null,"rent":5700,"recommendedRent":5360,"roomCount":2,"squareMeters":59,"shared":false,"studentHome":false,"applicationCount":0,"inContactCount":0,"declinedCount":0,"matchingCount":30,"safeRental":false,"professional":false,"landlordApplicationId":null,"duration":{"start":{"asap":true,"optimal":null},"end":{"ufn":true}},"location":{"placeId":"ChIJl4xUXwO3VkYR8WigUeKDUT4","country":"Sverige","countryCode":"SE","locality":"Lönsboda","postalCode":"283 71","sublocality":null,"route":"Västra Gränsgatan","streetNumber":"12","formattedAddress":"Västra Gränsgatan, 280 70 Lönsboda, Sverige","shortName":null,"latitude":"56.3989085","longitude":"14.3136213"},"uploads":[{"id":888859,"title":"IMG_2030.jpg","fileType":"image","uploadType":"home_picture","url":"https://qasa-static-prod.s3-eu-west-1.amazonaws.com/img/2b71fc4f69ee12ba294b9210e8b2134abd76d1141c7c446ea975b4824cedf590.jpg","metadata":{"order":null,"rotation":null,"primary":false}}]},{"currency":"SEK","external":false,"fee":129,"firsthand":false,"homeStatus":"normal","homeType":"apartment","id":68822,"links":{"en":"https://bostad.blocket.se/rent/room-in-apartment/sorgardsgatan-linkoping/68822","sv":"https://bostad.blocket.se/hyra/rum-i-lagenhet/sorgardsgatan-linkoping/68822"},"origin":null,"rent":2588,"recommendedRent":4461,"roomCount":1,"squareMeters":18,"shared":true,"studentHome":false,"applicationCount":2,"inContactCount":0,"declinedCount":0,"matchingCount":47,"safeRental":false,"professional":false,"landlordApplicationId":null,"duration":{"start":{"asap":true,"optimal":null},"end":{"ufn":true}},"location":{"placeId":"ChIJQ6E3H1dvWUYRATa3OAbAYBs","country":"Sverige","countryCode":"SE","locality":"Linköping","postalCode":"586 45","sublocality":null,"route":"Sörgårdsgatan","streetNumber":"43","formattedAddress":"Sörgårdsgatan, 586 45 Linköping, Sverige","shortName":null,"latitude":"58.4229381","longitude":"15.5750264"},"uploads":[{"id":888824,"title":"IMG_20191215_141853.jpg","fileType":"image","uploadType":"home_picture","url":"https://qasa-static-prod.s3-eu-west-1.amazonaws.com/img/a76725b9104860d10b8c1918a0c56bfe3a09d082823721b993811ba0f95fc33e.jpg","metadata":{"order":3,"rotation":null,"primary":true}}]},{"currency":"SEK","external":false,"fee":375,"firsthand":false,"homeStatus":"normal","homeType":"apartment","id":68831,"links":{"en":"https://bostad.blocket.se/rent/apartment/smyckegatan-vastra-frolunda/68831","sv":"https://bostad.blocket.se/hyra/lagenhet/smyckegatan-vastra-frolunda/68831"},"origin":null,"rent":7500,"recommendedRent":8099,"roomCount":1.5,"squareMeters":41,"shared":false,"studentHome":false,"applicationCount":14,"inContactCount":0,"declinedCount":0,"matchingCount":970,"safeRental":false,"professional":false,"landlordApplicationId":null,"duration":{"start":{"asap":true,"optimal":"2020-01-12T00:00:00.000Z"},"end":{"ufn":true}},"location":{"placeId":"ChIJMVU8ksryT0YRa62YHm3bL5Y","country":"Sverige","countryCode":"SE","locality":"VÄSTRA FRÖLUNDA","postalCode":"42650","sublocality":null,"route":"Smyckegatan","streetNumber":"Smyckegatan","formattedAddress":"Smyckegatan, Göteborg, Sverige","shortName":null,"latitude":"57.6538093","longitude":"11.9009987"},"uploads":[{"id":888849,"title":"sp.jpg","fileType":"image","uploadType":"home_picture","url":"https://qasa-static-prod.s3-eu-west-1.amazonaws.com/img/9fc9ad008b5b6824059f4f98a362695ba0e28579bff98bdc78f43fcf1dd3d12d.jpg","metadata":{"order":null,"rotation":null,"primary":false}}]},{"currency":"SEK","external":false,"fee":150,"firsthand":false,"homeStatus":"normal","homeType":"corridor","id":68815,"links":{"en":"https://bostad.blocket.se/rent/room-in-corridor/kavlingevagen-lund/68815","sv":"https://bostad.blocket.se/hyra/rum-i-korridor/kavlingevagen-lund/68815"},"origin":null,"rent":3000,"recommendedRent":7319,"roomCount":5,"squareMeters":24,"shared":true,"studentHome":false,"applicationCount":2,"inContactCount":0,"declinedCount":0,"matchingCount":161,"safeRental":false,"professional":false,"landlordApplicationId":null,"duration":{"start":{"asap":false,"optimal":"2020-01-02T00:00:00.000Z"},"end":{"ufn":true}},"location":{"placeId":"ChIJ-3ko_oa9U0YRBup3E9lyMYA","country":"Sverige","countryCode":"SE","locality":"Lund","postalCode":"226 50","sublocality":null,"route":"Kävlingevägen","streetNumber":"110","formattedAddress":"Kävlingevägen, Lund, Sverige","shortName":null,"latitude":"55.7264192","longitude":"13.1807406"},"uploads":[{"id":888728,"title":"IMG_20191201_092207.jpg","fileType":"image","uploadType":"home_picture","url":"https://qasa-static-prod.s3-eu-west-1.amazonaws.com/img/f8dfa8358749f719bbc818a15b044ec234b2d049f1701a87ba5784a4865cc20c.jpg","metadata":{"order":null,"rotation":null,"primary":false}}]},{"currency":"SEK","external":false,"fee":225,"firsthand":false,"homeStatus":"normal","homeType":"apartment","id":68803,"links":{"en":"https://bostad.blocket.se/rent/apartment/bankogardsgatan-helsingborg/68803","sv":"https://bostad.blocket.se/hyra/lagenhet/bankogardsgatan-helsingborg/68803"},"origin":null,"rent":4500,"recommendedRent":5287,"roomCount":2,"squareMeters":35,"shared":false,"studentHome":false,"applicationCount":2,"inContactCount":0,"declinedCount":0,"matchingCount":174,"safeRental":false,"professional":false,"landlordApplicationId":null,"duration":{"start":{"asap":false,"optimal":"2020-01-01T00:00:00.000Z"},"end":{"ufn":true}},"location":{"placeId":"ChIJSasothwzUkYR83wthF45tlw","country":"Sverige","countryCode":"SE","locality":"Helsingborg","postalCode":"256 55","sublocality":null,"route":"Bankogårdsgatan ","streetNumber":"40","formattedAddress":"Bankogårdsgatan, 256 55 Helsingborg, Sverige","shortName":null,"latitude":"56.0338745","longitude":"12.7411799"},"uploads":[{"id":888624,"title":"IMG_1780.jpg","fileType":"image","uploadType":"home_picture","url":"https://qasa-static-prod.s3-eu-west-1.amazonaws.com/img/bff9672b429fc178c34dbcb292eb37e13f235f767715f335d3355c317fba18e7.jpg","metadata":{"order":1,"rotation":null,"primary":true}}]},{"currency":"SEK","external":false,"fee":375,"firsthand":false,"homeStatus":"normal","homeType":"apartment","id":68496,"links":{"en":"https://bostad.blocket.se/rent/apartment/storgatan-nordmaling/68496","sv":"https://bostad.blocket.se/hyra/lagenhet/storgatan-nordmaling/68496"},"origin":null,"rent":7500,"recommendedRent":7023,"roomCount":3,"squareMeters":85,"shared":false,"studentHome":false,"applicationCount":0,"inContactCount":0,"declinedCount":0,"matchingCount":1,"safeRental":false,"professional":false,"landlordApplicationId":null,"duration":{"start":{"asap":false,"optimal":"2020-03-01T00:00:00.000Z"},"end":{"ufn":true}},"location":{"placeId":"ChIJt2mte8-RfEYRPRIm09VKdZE","country":"Sverige","countryCode":"SE","locality":"Nordmaling","postalCode":"91433","sublocality":null,"route":"Storgatan","streetNumber":"24","formattedAddress":"Storgatan 24, 914 33 Nordmaling, Sverige","shortName":null,"latitude":"63.5657676","longitude":"19.4996938"},"uploads":[]}]}